{
  "name": "a70uylf-jt1jfd",
  "arn": "arn:aws:iam::599747052961:role/a70uylf-jt1jfd",
  "service": [
    "edgelambda.amazonaws.com",
    "lambda.amazonaws.com"
  ],
  "policy": {
    "arn": "arn:aws:iam::aws:policy/service-role/AWSLambdaBasicExecutionRole"
  },
  "region": "us-east-1"
}